…
pulse_tidy_df
```

    ## # A tibble: 4,348 × 5
    ##       id visit   age sex   bdi_score
    ##    <dbl> <chr> <dbl> <chr>     <dbl>
    ##  1 10003 00m    48.0 male          7
    ##  2 10003 01m    48.0 male          1
    ##  3 10003 06m    48.0 male          2
    ##  4 10003 12m    48.0 male          0
    ##  5 10015 00m    72.5 male          6
    ##  6 10015 01m    72.5 male         NA
    ##  7 10015 06m    72.5 male         NA
    ##  8 10015 12m    72.5 male         NA
    ##  9 10022 00m    58.5 male         14
    ## 10 10022 01m    58.5 male          3
    ## # ℹ 4,338 more rows
…
litters_tidy_df
```

    ## # A tibble: 98 × 8
    ##    group litter_number gd_of_birth pups_born_alive pups_dead_birth pups_survive
    ##    <chr> <chr>               <dbl>           <dbl>           <dbl>        <dbl>
    ##  1 Con7  #85                    20               3               4            3
    ##  2 Con7  #85                    20               3               4            3
    ##  3 Con7  #1/2/95/2              19               8               0            7
    ##  4 Con7  #1/2/95/2              19               8               0            7
    ##  5 Con7  #5/5/3/83/3-3          19               6               0            5
    ##  6 Con7  #5/5/3/83/3-3          19               6               0            5
    ##  7 Con7  #5/4/2/95/2            19               5               1            4
    ##  8 Con7  #5/4/2/95/2            19               5               1            4
    ##  9 Con7  #4/2/95/3-3            20               6               0            6
    ## 10 Con7  #4/2/95/3-3            20               6               0            6
    ## # ℹ 88 more rows
    ## # ℹ 2 more variables: gd_time <dbl>, weight <dbl>
…
